Let’s cube those geoms! – Lore Abad
…
To read in the saved data, we can use the {sf} package.

(opensense = read_sf("data/opensensemap.gpkg"))

Simple feature collection with 1050 features and 5 fields
Geometry type: POINT
Dimension:     XY
Bounding box:  xmin: 12.18844 ymin: 47.62055 xmax: 13.12862 ymax: 47.8726
Geodetic CRS:  WGS 84
# A tibble: 1,050 × 6
   boxName   time_start          phenomenon unit  arithmeticMean_1h
   <chr>     <dttm>              <chr>      <chr>             <dbl>
 1 1188BRD16 2024-10-01 02:00:00 PM10       µg/m³             1.35 
 2 1188BRD16 2024-10-01 02:00:00 PM2.5      µg/m³             0.754
 3 1188BRD16 2024-10-01 02:00:00 Temperatur °C               NA    
 4 1188BRD16 2024-10-01 03:00:00 PM10       µg/m³             1.60 
 5 1188BRD16 2024-10-01 03:00:00 PM2.5      µg/m³             0.707
 6 1188BRD16 2024-10-01 03:00:00 Temperatur °C               NA    
 7 1188BRD16 2024-10-01 04:00:00 PM10       µg/m³             2.05 
 8 1188BRD16 2024-10-01 04:00:00 PM2.5      µg/m³             0.885
 9 1188BRD16 2024-10-01 04:00:00 Temperatur °C               NA    
10 1188BRD16 2024-10-01 05:00:00 PM10       µg/m³             1.70 
# ℹ 1,040 more rows
# ℹ 1 more variable: geom <POINT [°]>
…
