Lore Abad - Geospatial Network Visualization
…
But when talking about geospatial networks, we would usually want to place the nodes in their geographical location. A really nice thing about ggraph, is that you can give your own customized layout, by passing custom X and Y coordinates for node placement!

In sfnetworks, we have a spatial network consisting of nodes and edges. Since we have a nice integration with sf, we can extract the coordinates of our nodes as an X and Y coordinate dataframe, which we can pass to ggraph. Let me give you a quick demo instead of all these words.

net

# A sfnetwork with 701 nodes and 851 edges
#
# CRS:  EPSG:4326 
#
# An undirected multigraph with 14 components with spatially explicit edges
#
# A tibble: 701 × 1
             geometry
          <POINT [°]>
1 (7.533722 51.95556)
2 (7.533461 51.95576)
3 (7.532442 51.95422)
4  (7.53209 51.95328)
5 (7.532709 51.95209)
6 (7.532869 51.95257)
# ℹ 695 more rows
#
# A tibble: 851 × 5
   from    to name                  type                                geometry
  <int> <int> <chr>                 <fct>                       <LINESTRING [°]>
1     1     2 Havixbecker Strasse   residential (7.533722 51.95556, 7.533461 51…
2     3     4 Pienersallee          secondary   (7.532442 51.95422, 7.53236 51.…
3     5     6 Schulte-Bernd-Strasse residential (7.532709 51.95209, 7.532823 51…
# ℹ 848 more rows
…
